{
  "uid" : "4b4757e66a1912dae1a509f688f20b0f",
  "name" : "categories",
  "children" : [ {
    "name" : "Product defects",
    "children" : [ {
      "name" : "class org.openqa.selenium.TimeoutException - Expected condition failed: waiting for presence of element located by: By.xpath: //a[@href='/accounts/logout/'] (tried for 10 second(s) with 200 milliseconds interval)",
      "children" : [ {
        "name" : "Data Driven Tests - \"Basic Long User\"",
        "uid" : "90888c357152f358",
        "parentUid" : "a75af1bc23ab3f6c257035cbdd8af052",
        "status" : "failed",
        "time" : {
          "start" : 1630317317156,
          "stop" : 1630317329623,
          "duration" : 12467
        },
        "flaky" : false,
        "newFailed" : false,
        "parameters" : [ "Basic Long User", "test1324test1324test1324test1324test1324test1324" ]
      }, {
        "name" : "Data Driven Tests - \"Basic Long User\"",
        "uid" : "c18e2e1757f28b91",
        "parentUid" : "a75af1bc23ab3f6c257035cbdd8af052",
        "status" : "failed",
        "time" : {
          "start" : 1630317329630,
          "stop" : 1630317342209,
          "duration" : 12579
        },
        "flaky" : false,
        "newFailed" : false,
        "parameters" : [ "Basic Long User", "test1324@test12345678901234567890123456789012345678" ]
      } ],
      "uid" : "a75af1bc23ab3f6c257035cbdd8af052"
    } ],
    "uid" : "8fb3a91ba5aaf9de24cc8a92edc82b5d"
  } ]
}